%YAML 1.1
%TAG !u! tag:unity3d.com,2011:
--- !u!1 &100000
GameObject:
  m_ObjectHideFlags: 0
  m_PrefabParentObject: {fileID: 0}
  m_PrefabInternal: {fileID: 100100000}
  serializedVersion: 4
  m_Component:
  - 4: {fileID: 400000}
  - 114: {fileID: 11400002}
  m_Layer: 0
  m_Name: EffBulletRocketAfterHit
  m_TagString: Untagged
  m_Icon: {fileID: 0}
  m_NavMeshLayer: 0
  m_StaticEditorFlags: 0
  m_IsActive: 1
--- !u!1002 &100001
EditorExtensionImpl:
  serializedVersion: 6
--- !u!4 &400000
Transform:
  m_ObjectHideFlags: 1
  m_PrefabParentObject: {fileID: 0}
  m_PrefabInternal: {fileID: 100100000}
  m_GameObject: {fileID: 100000}
  m_LocalRotation: {x: 0, y: 0, z: 0, w: 1}
  m_LocalPosition: {x: 170, y: 1.01460242, z: 90}
  m_LocalScale: {x: 1, y: 1, z: 1}
  m_Children: []
  m_Father: {fileID: 0}
--- !u!1002 &400001
EditorExtensionImpl:
  serializedVersion: 6
--- !u!114 &11400002
MonoBehaviour:
  m_ObjectHideFlags: 1
  m_PrefabParentObject: {fileID: 0}
  m_PrefabInternal: {fileID: 100100000}
  m_GameObject: {fileID: 100000}
  m_Enabled: 1
  m_EditorHideFlags: 0
  m_Script: {fileID: 11500000, guid: 9b4007f1233a9b74fa9be42583fafba6, type: 3}
  m_Name: 
  size: 26
  color: {r: 1, g: .423529416, b: 0, a: .501960814}
  explodeOnStart: 1
  duration: 1
  detail: 1
  upwardsBias: 0
  destroyTime: 0
  useWorldSpace: 1
  direction: {x: 0, y: 0, z: 0}
  fireballAMaterial: {fileID: 0}
  fireballBMaterial: {fileID: 0}
  smokeAMaterial: {fileID: 0}
  smokeBMaterial: {fileID: 0}
  shockwaveMaterial: {fileID: 0}
  sparksMaterial: {fileID: 0}
  glowMaterial: {fileID: 0}
  heatwaveMaterial: {fileID: 0}
  autoCreateFireball: 1
  autoCreateSparks: 0
  autoCreateShockwave: 0
  autoCreateSmoke: 0
  autoCreateGlow: 0
  autoCreateLight: 0
  autoCreateForce: 0
  autoCreateHeatwave: 0
--- !u!1002 &11400003
EditorExtensionImpl:
  serializedVersion: 6
--- !u!1001 &100100000
Prefab:
  m_ObjectHideFlags: 1
  serializedVersion: 2
  m_Modification:
    m_TransformParent: {fileID: 0}
    m_Modifications: []
    m_RemovedComponents: []
  m_ParentPrefab: {fileID: 0}
  m_RootGameObject: {fileID: 100000}
  m_IsPrefabParent: 1
  m_IsExploded: 1
--- !u!1002 &100100001
EditorExtensionImpl:
  serializedVersion: 6
