%YAML 1.1
%TAG !u! tag:unity3d.com,2011:
--- !u!1 &100000
GameObject:
  m_ObjectHideFlags: 0
  m_PrefabParentObject: {fileID: 0}
  m_PrefabInternal: {fileID: 100100000}
  serializedVersion: 4
  m_Component:
  - 4: {fileID: 400000}
  - 114: {fileID: 11400000}
  m_Layer: 0
  m_Name: EFFLaserHit
  m_TagString: Untagged
  m_Icon: {fileID: 0}
  m_NavMeshLayer: 0
  m_StaticEditorFlags: 0
  m_IsActive: 1
--- !u!1002 &100001
EditorExtensionImpl:
  serializedVersion: 6
--- !u!4 &400000
Transform:
  m_ObjectHideFlags: 1
  m_PrefabParentObject: {fileID: 0}
  m_PrefabInternal: {fileID: 100100000}
  m_GameObject: {fileID: 100000}
  m_LocalRotation: {x: 0, y: 0, z: 0, w: 1}
  m_LocalPosition: {x: .00763237476, y: .788020968, z: .01810956}
  m_LocalScale: {x: 1, y: 1, z: 1}
  m_Children: []
  m_Father: {fileID: 0}
--- !u!1002 &400001
EditorExtensionImpl:
  serializedVersion: 6
--- !u!114 &11400000
MonoBehaviour:
  m_ObjectHideFlags: 1
  m_PrefabParentObject: {fileID: 0}
  m_PrefabInternal: {fileID: 100100000}
  m_GameObject: {fileID: 100000}
  m_Enabled: 1
  m_EditorHideFlags: 0
  m_Script: {fileID: 11500000, guid: 9b4007f1233a9b74fa9be42583fafba6, type: 3}
  m_Name: 
  size: 10
  color: {r: .961538434, g: .665680468, b: 0, a: .549019635}
  explodeOnStart: 1
  duration: 1.79999995
  detail: 1.10993302
  upwardsBias: 0
  destroyTime: 0
  useWorldSpace: 1
  direction: {x: 0, y: 0, z: 0}
  fireballAMaterial: {fileID: 2100000, guid: 35c8aea4fddc3f842bd829a8fd3d7e1c, type: 2}
  fireballBMaterial: {fileID: 2100000, guid: 35c8aea4fddc3f842bd829a8fd3d7e1c, type: 2}
  smokeAMaterial: {fileID: 2100000, guid: 35c8aea4fddc3f842bd829a8fd3d7e1c, type: 2}
  smokeBMaterial: {fileID: 2100000, guid: 35c8aea4fddc3f842bd829a8fd3d7e1c, type: 2}
  shockwaveMaterial: {fileID: 2100000, guid: 35c8aea4fddc3f842bd829a8fd3d7e1c, type: 2}
  sparksMaterial: {fileID: 2100000, guid: 35c8aea4fddc3f842bd829a8fd3d7e1c, type: 2}
  glowMaterial: {fileID: 2100000, guid: 35c8aea4fddc3f842bd829a8fd3d7e1c, type: 2}
  heatwaveMaterial: {fileID: 0}
  autoCreateFireball: 1
  autoCreateSparks: 1
  autoCreateShockwave: 1
  autoCreateSmoke: 0
  autoCreateGlow: 1
  autoCreateLight: 0
  autoCreateForce: 0
  autoCreateHeatwave: 0
--- !u!1002 &11400001
EditorExtensionImpl:
  serializedVersion: 6
--- !u!1001 &100100000
Prefab:
  m_ObjectHideFlags: 1
  serializedVersion: 2
  m_Modification:
    m_TransformParent: {fileID: 0}
    m_Modifications: []
    m_RemovedComponents: []
  m_ParentPrefab: {fileID: 0}
  m_RootGameObject: {fileID: 100000}
  m_IsPrefabParent: 1
  m_IsExploded: 1
--- !u!1002 &100100001
EditorExtensionImpl:
  serializedVersion: 6
