%YAML 1.1
%TAG !u! tag:unity3d.com,2011:
--- !u!21 &2100000
Material:
  serializedVersion: 3
  m_ObjectHideFlags: 0
  m_PrefabParentObject: {fileID: 0}
  m_PrefabInternal: {fileID: 0}
  m_Name: MatBossSubmarine 4
  m_Shader: {fileID: 4800000, guid: 80c15944b1e79468c9f34d6242fa58c9, type: 3}
  m_ShaderKeywords: []
  m_SavedProperties:
    serializedVersion: 2
    m_TexEnvs:
      data:
        first:
          name: _MainTex
        second:
          m_Texture: {fileID: 2800000, guid: 497bd5a4fbdb94d83a915081ef18aa6c, type: 3}
          m_Scale: {x: 1, y: 1}
          m_Offset: {x: 0, y: 0}
    m_Floats:
      data:
        first:
          name: _Shininess
        second: .699999988
      data:
        first:
          name: _Speed
        second: 1
      data:
        first:
          name: _RowCount
        second: 1
      data:
        first:
          name: _ColumnCount
        second: 1
      data:
        first:
          name: _UseSpriteCount
        second: 1
      data:
        first:
          name: _Range
        second: 2
      data:
        first:
          name: _SpriteCoung
        second: 1
      data:
        first:
          name: _SpriteCount
        second: 2
      data:
        first:
          name: _Column
        second: 2
      data:
        first:
          name: _UseColumn
        second: 1
      data:
        first:
          name: _UseCount
        second: 2
    m_Colors:
      data:
        first:
          name: _Color
        second: {r: 1, g: 1, b: 1, a: 1}
      data:
        first:
          name: _SpecColor
        second: {r: 1, g: 1, b: 1, a: 0}
      data:
        first:
          name: _Emission
        second: {r: 0, g: 0, b: 0, a: 0}
