%YAML 1.1
%TAG !u! tag:unity3d.com,2011:
--- !u!1 &100000
GameObject:
  m_ObjectHideFlags: 0
  m_PrefabParentObject: {fileID: 0}
  m_PrefabInternal: {fileID: 100100000}
  serializedVersion: 4
  m_Component:
  - 4: {fileID: 400000}
  - 114: {fileID: 11400000}
  m_Layer: 0
  m_Name: AchievementSpriteAltas
  m_TagString: Untagged
  m_Icon: {fileID: 0}
  m_NavMeshLayer: 0
  m_StaticEditorFlags: 0
  m_IsActive: 1
--- !u!4 &400000
Transform:
  m_ObjectHideFlags: 1
  m_PrefabParentObject: {fileID: 0}
  m_PrefabInternal: {fileID: 100100000}
  m_GameObject: {fileID: 100000}
  m_LocalRotation: {x: 0, y: 0, z: 0, w: 1}
  m_LocalPosition: {x: 0, y: 0, z: 0}
  m_LocalScale: {x: 1, y: 1, z: 1}
  m_Children: []
  m_Father: {fileID: 0}
--- !u!114 &11400000
MonoBehaviour:
  m_ObjectHideFlags: 1
  m_PrefabParentObject: {fileID: 0}
  m_PrefabInternal: {fileID: 100100000}
  m_GameObject: {fileID: 100000}
  m_Enabled: 1
  m_EditorHideFlags: 0
  m_Script: {fileID: 11500000, guid: 4d0c51bb0b6e93049af5e88f93826e3b, type: 3}
  m_Name: 
  material: {fileID: 2100000, guid: 4c63d6a2159374bcc9213122e95bc2f7, type: 2}
  sprites:
  - name: Game_11quest_01
    outer:
      serializedVersion: 2
      x: 0
      y: 1792
      width: 1024
      height: 256
    inner:
      serializedVersion: 2
      x: 0
      y: 1792
      width: 1024
      height: 256
    rotated: 0
    paddingLeft: 0
    paddingRight: 0
    paddingTop: 0
    paddingBottom: 0
  - name: Game_11quest_12
    outer:
      serializedVersion: 2
      x: 1024
      y: 1792
      width: 1024
      height: 256
    inner:
      serializedVersion: 2
      x: 1024
      y: 1792
      width: 1024
      height: 256
    rotated: 0
    paddingLeft: 0
    paddingRight: 0
    paddingTop: 0
    paddingBottom: 0
  - name: Game_11quest_05
    outer:
      serializedVersion: 2
      x: 0
      y: 1536
      width: 1024
      height: 256
    inner:
      serializedVersion: 2
      x: 0
      y: 1536
      width: 1024
      height: 256
    rotated: 0
    paddingLeft: 0
    paddingRight: 0
    paddingTop: 0
    paddingBottom: 0
  - name: Game_11quest_11
    outer:
      serializedVersion: 2
      x: 1024
      y: 1536
      width: 1024
      height: 256
    inner:
      serializedVersion: 2
      x: 1024
      y: 1536
      width: 1024
      height: 256
    rotated: 0
    paddingLeft: 0
    paddingRight: 0
    paddingTop: 0
    paddingBottom: 0
  - name: Game_11quest_03
    outer:
      serializedVersion: 2
      x: 0
      y: 1280
      width: 1024
      height: 256
    inner:
      serializedVersion: 2
      x: 0
      y: 1280
      width: 1024
      height: 256
    rotated: 0
    paddingLeft: 0
    paddingRight: 0
    paddingTop: 0
    paddingBottom: 0
  - name: Game_11quest_15
    outer:
      serializedVersion: 2
      x: 1024
      y: 1280
      width: 1024
      height: 256
    inner:
      serializedVersion: 2
      x: 1024
      y: 1280
      width: 1024
      height: 256
    rotated: 0
    paddingLeft: 0
    paddingRight: 0
    paddingTop: 0
    paddingBottom: 0
  - name: Game_11quest_04
    outer:
      serializedVersion: 2
      x: 0
      y: 1024
      width: 1024
      height: 256
    inner:
      serializedVersion: 2
      x: 0
      y: 1024
      width: 1024
      height: 256
    rotated: 0
    paddingLeft: 0
    paddingRight: 0
    paddingTop: 0
    paddingBottom: 0
  - name: Game_11quest_10
    outer:
      serializedVersion: 2
      x: 1024
      y: 1024
      width: 1024
      height: 256
    inner:
      serializedVersion: 2
      x: 1024
      y: 1024
      width: 1024
      height: 256
    rotated: 0
    paddingLeft: 0
    paddingRight: 0
    paddingTop: 0
    paddingBottom: 0
  - name: Game_11quest_16
    outer:
      serializedVersion: 2
      x: 0
      y: 768
      width: 1024
      height: 256
    inner:
      serializedVersion: 2
      x: 0
      y: 768
      width: 1024
      height: 256
    rotated: 0
    paddingLeft: 0
    paddingRight: 0
    paddingTop: 0
    paddingBottom: 0
  - name: Game_11quest_14
    outer:
      serializedVersion: 2
      x: 0
      y: 512
      width: 1024
      height: 256
    inner:
      serializedVersion: 2
      x: 0
      y: 512
      width: 1024
      height: 256
    rotated: 0
    paddingLeft: 0
    paddingRight: 0
    paddingTop: 0
    paddingBottom: 0
  - name: Game_11quest_06
    outer:
      serializedVersion: 2
      x: 0
      y: 256
      width: 1024
      height: 256
    inner:
      serializedVersion: 2
      x: 0
      y: 256
      width: 1024
      height: 256
    rotated: 0
    paddingLeft: 0
    paddingRight: 0
    paddingTop: 0
    paddingBottom: 0
  - name: Game_11quest_02
    outer:
      serializedVersion: 2
      x: 0
      y: 0
      width: 1024
      height: 256
    inner:
      serializedVersion: 2
      x: 0
      y: 0
      width: 1024
      height: 256
    rotated: 0
    paddingLeft: 0
    paddingRight: 0
    paddingTop: 0
    paddingBottom: 0
  - name: Game_11quest_08
    outer:
      serializedVersion: 2
      x: 1024
      y: 768
      width: 1024
      height: 256
    inner:
      serializedVersion: 2
      x: 1024
      y: 768
      width: 1024
      height: 256
    rotated: 0
    paddingLeft: 0
    paddingRight: 0
    paddingTop: 0
    paddingBottom: 0
  - name: Game_11quest_09
    outer:
      serializedVersion: 2
      x: 1024
      y: 512
      width: 1024
      height: 256
    inner:
      serializedVersion: 2
      x: 1024
      y: 512
      width: 1024
      height: 256
    rotated: 0
    paddingLeft: 0
    paddingRight: 0
    paddingTop: 0
    paddingBottom: 0
  - name: Game_11quest_13
    outer:
      serializedVersion: 2
      x: 1024
      y: 256
      width: 1024
      height: 256
    inner:
      serializedVersion: 2
      x: 1024
      y: 256
      width: 1024
      height: 256
    rotated: 0
    paddingLeft: 0
    paddingRight: 0
    paddingTop: 0
    paddingBottom: 0
  - name: Game_11quest_07
    outer:
      serializedVersion: 2
      x: 1024
      y: 0
      width: 1024
      height: 256
    inner:
      serializedVersion: 2
      x: 1024
      y: 0
      width: 1024
      height: 256
    rotated: 0
    paddingLeft: 0
    paddingRight: 0
    paddingTop: 0
    paddingBottom: 0
  mCoordinates: 0
  mPixelSize: 1
  mReplacement: {fileID: 0}
--- !u!1001 &100100000
Prefab:
  m_ObjectHideFlags: 1
  serializedVersion: 2
  m_Modification:
    m_TransformParent: {fileID: 0}
    m_Modifications: []
    m_RemovedComponents: []
  m_ParentPrefab: {fileID: 0}
  m_RootGameObject: {fileID: 100000}
  m_IsPrefabParent: 1
  m_IsExploded: 1
